{
    "KPackageStructure": "KWin/Effect",
    "KPlugin": {
        "Authors": [
            {
                "Email": "vlad.zahorodnii@kde.org",
                "Name": "Vlad Zahorodnii",
                "Name[ar]": "فلاد زاهورودني",
                "Name[az]": "Vlad Zahorodnii",
                "Name[bg]": "Vlad Zahorodnii",
                "Name[ca@valencia]": "Vlad Zahorodnii",
                "Name[ca]": "Vlad Zahorodnii",
                "Name[cs]": "Vlad Zahorodnii",
                "Name[de]": "Vlad Zahorodnii",
                "Name[en_GB]": "Vlad Zahorodnii",
                "Name[es]": "Vlad Zahorodnii",
                "Name[eu]": "Vlad Zahorodnii",
                "Name[fi]": "Vlad Zahorodnii",
                "Name[fr]": "Vlad Zahorodnii",
                "Name[hu]": "Vlad Zahorodnii",
                "Name[ia]": "Vlad Zahorodnii",
                "Name[id]": "Vlad Zahorodnii",
                "Name[it]": "Vlad Zahorodnii",
                "Name[ja]": "Vlad Zahorodnii",
                "Name[ka]": "Vlad Zahorodnii",
                "Name[ko]": "Vlad Zahorodnii",
                "Name[lt]": "Vlad Zahorodnii",
                "Name[nl]": "Vlad Zahorodnii",
                "Name[nn]": "Vlad Zahorodnii",
                "Name[pl]": "Vlad Zahorodnii",
                "Name[pt]": "Vlad Zahorodnii",
                "Name[pt_BR]": "Vlad Zahorodnii",
                "Name[ro]": "Vlad Zahorodnii",
                "Name[ru]": "Влад Загородний",
                "Name[sk]": "Vlad Zahorodnii",
                "Name[sl]": "Vlad Zahorodnii",
                "Name[sv]": "Vlad Zahorodnii",
                "Name[ta]": "விலாட் ஜாஹொரிடுனி",
                "Name[tr]": "Vlad Zahorodnii",
                "Name[uk]": "Влад Загородній",
                "Name[vi]": "Vlad Zahorodnii",
                "Name[x-test]": "xxVlad Zahorodniixx",
                "Name[zh_CN]": "Vlad Zahorodnii",
                "Name[zh_TW]": "Vlad Zahorodnii"
            }
        ],
        "Name": "KWin Effect",
        "Name[ar]": "تأثيرات كوين",
        "Name[az]": "KWin effekti",
        "Name[bg]": "KWin Ефект",
        "Name[ca@valencia]": "Efecte de KWin",
        "Name[ca]": "Efecte del KWin",
        "Name[cs]": "Efekt KWinu",
        "Name[de]": "KWin-Effekt",
        "Name[en_GB]": "KWin Effect",
        "Name[es]": "Efecto de KWin",
        "Name[eu]": "KWin efektua",
        "Name[fi]": "KWin-tehoste",
        "Name[fr]": "Effet pour KWin",
        "Name[hu]": "KWin effektus",
        "Name[ia]": "Effecto de KWin",
        "Name[id]": "Efek KWin",
        "Name[it]": "Effetto di KWin",
        "Name[ja]": "KWin エフェクト",
        "Name[ka]": "KWin -ის ეფექტი",
        "Name[ko]": "KWin 효과",
        "Name[lt]": "KWin efektas",
        "Name[nl]": "KWin-effect",
        "Name[nn]": "KWin-effekt",
        "Name[pl]": "Efekt KWin",
        "Name[pt]": "Efeito do KWin",
        "Name[pt_BR]": "Efeito do KWin",
        "Name[ro]": "Efect KWin",
        "Name[ru]": "Эффект диспетчера окон KWin",
        "Name[sk]": "KWin Efekt",
        "Name[sl]": "Učinek KWin",
        "Name[sv]": "Kwin-effekt",
        "Name[ta]": "கேவின் அசைவூட்டம்",
        "Name[tr]": "KWin Efekti",
        "Name[uk]": "Ефект KWin",
        "Name[vi]": "Hiệu ứng KWin",
        "Name[x-test]": "xxKWin Effectxx",
        "Name[zh_CN]": "KWin 特效",
        "Name[zh_TW]": "KWin 效果",
        "Version": "1"
    }
}
